%YAML 1.1
%TAG !u! tag:unity3d.com,2011:
--- !u!1 &6465515034008501836
GameObject:
  m_ObjectHideFlags: 0
  m_CorrespondingSourceObject: {fileID: 0}
  m_PrefabInstance: {fileID: 0}
  m_PrefabAsset: {fileID: 0}
  serializedVersion: 6
  m_Component:
  - component: {fileID: 6465515034008501833}
  - component: {fileID: 6465515034008501832}
  - component: {fileID: 6465515034008501835}
  - component: {fileID: 6465515034008501834}
  - component: {fileID: 2954056286927333851}
  m_Layer: 0
  m_Name: PowerChop
  m_TagString: BladeFury
  m_Icon: {fileID: 0}
  m_NavMeshLayer: 0
  m_StaticEditorFlags: 0
  m_IsActive: 1
--- !u!4 &6465515034008501833
Transform:
  m_ObjectHideFlags: 0
  m_CorrespondingSourceObject: {fileID: 0}
  m_PrefabInstance: {fileID: 0}
  m_PrefabAsset: {fileID: 0}
  m_GameObject: {fileID: 6465515034008501836}
  m_LocalRotation: {x: 0, y: 0, z: -0.008726465, w: 0.999962}
  m_LocalPosition: {x: 5.111388, y: 3.6409392, z: 383.24}
  m_LocalScale: {x: 0.18309, y: 1, z: 1}
  m_Children:
  - {fileID: 6869202802305953896}
  m_Father: {fileID: 0}
  m_RootOrder: 0
  m_LocalEulerAnglesHint: {x: 0, y: 0, z: -1}
--- !u!33 &6465515034008501832
MeshFilter:
  m_ObjectHideFlags: 0
  m_CorrespondingSourceObject: {fileID: 0}
  m_PrefabInstance: {fileID: 0}
  m_PrefabAsset: {fileID: 0}
  m_GameObject: {fileID: 6465515034008501836}
  m_Mesh: {fileID: 10202, guid: 0000000000000000e000000000000000, type: 0}
--- !u!23 &6465515034008501835
MeshRenderer:
  m_ObjectHideFlags: 0
  m_CorrespondingSourceObject: {fileID: 0}
  m_PrefabInstance: {fileID: 0}
  m_PrefabAsset: {fileID: 0}
  m_GameObject: {fileID: 6465515034008501836}
  m_Enabled: 0
  m_CastShadows: 1
  m_ReceiveShadows: 1
  m_DynamicOccludee: 1
  m_MotionVectors: 1
  m_LightProbeUsage: 1
  m_ReflectionProbeUsage: 1
  m_RenderingLayerMask: 1
  m_RendererPriority: 0
  m_Materials:
  - {fileID: 10303, guid: 0000000000000000f000000000000000, type: 0}
  m_StaticBatchInfo:
    firstSubMesh: 0
    subMeshCount: 0
  m_StaticBatchRoot: {fileID: 0}
  m_ProbeAnchor: {fileID: 0}
  m_LightProbeVolumeOverride: {fileID: 0}
  m_ScaleInLightmap: 1
  m_PreserveUVs: 0
  m_IgnoreNormalsForChartDetection: 0
  m_ImportantGI: 0
  m_StitchLightmapSeams: 0
  m_SelectedEditorRenderState: 3
  m_MinimumChartSize: 4
  m_AutoUVMaxDistance: 0.5
  m_AutoUVMaxAngle: 89
  m_LightmapParameters: {fileID: 0}
  m_SortingLayerID: 0
  m_SortingLayer: 0
  m_SortingOrder: 0
--- !u!65 &6465515034008501834
BoxCollider:
  m_ObjectHideFlags: 0
  m_CorrespondingSourceObject: {fileID: 0}
  m_PrefabInstance: {fileID: 0}
  m_PrefabAsset: {fileID: 0}
  m_GameObject: {fileID: 6465515034008501836}
  m_Material: {fileID: 0}
  m_IsTrigger: 1
  m_Enabled: 1
  serializedVersion: 2
  m_Size: {x: 6.527234, y: 2.6554685, z: 3.9843597}
  m_Center: {x: -0.21132629, y: 0.91043353, z: -0.98223877}
--- !u!114 &2954056286927333851
MonoBehaviour:
  m_ObjectHideFlags: 0
  m_CorrespondingSourceObject: {fileID: 0}
  m_PrefabInstance: {fileID: 0}
  m_PrefabAsset: {fileID: 0}
  m_GameObject: {fileID: 6465515034008501836}
  m_Enabled: 1
  m_EditorHideFlags: 0
  m_Script: {fileID: 11500000, guid: 4b89593ddc6e55c4daf9906dde4c0bf3, type: 3}
  m_Name: 
  m_EditorClassIdentifier: 
  pool: {fileID: 0}
  startTime: 0
  powerChopLife: 1
  chopSpeed: 20
--- !u!1001 &6870840659382108832
PrefabInstance:
  m_ObjectHideFlags: 0
  serializedVersion: 2
  m_Modification:
    m_TransformParent: {fileID: 6465515034008501833}
    m_Modifications:
    - target: {fileID: 1124449426615244, guid: b522bebd20426ea4ea6a25fc1647ee11, type: 3}
      propertyPath: m_Name
      value: FX_Slash_08r_Clone
      objectReference: {fileID: 0}
    - target: {fileID: 4062287230431944, guid: b522bebd20426ea4ea6a25fc1647ee11, type: 3}
      propertyPath: m_LocalPosition.x
      value: 0
      objectReference: {fileID: 0}
    - target: {fileID: 4062287230431944, guid: b522bebd20426ea4ea6a25fc1647ee11, type: 3}
      propertyPath: m_LocalPosition.y
      value: -0.923
      objectReference: {fileID: 0}
    - target: {fileID: 4062287230431944, guid: b522bebd20426ea4ea6a25fc1647ee11, type: 3}
      propertyPath: m_LocalPosition.z
      value: 0
      objectReference: {fileID: 0}
    - target: {fileID: 4062287230431944, guid: b522bebd20426ea4ea6a25fc1647ee11, type: 3}
      propertyPath: m_LocalRotation.x
      value: -0
      objectReference: {fileID: 0}
    - target: {fileID: 4062287230431944, guid: b522bebd20426ea4ea6a25fc1647ee11, type: 3}
      propertyPath: m_LocalRotation.y
      value: -0
      objectReference: {fileID: 0}
    - target: {fileID: 4062287230431944, guid: b522bebd20426ea4ea6a25fc1647ee11, type: 3}
      propertyPath: m_LocalRotation.z
      value: -0
      objectReference: {fileID: 0}
    - target: {fileID: 4062287230431944, guid: b522bebd20426ea4ea6a25fc1647ee11, type: 3}
      propertyPath: m_LocalRotation.w
      value: 1
      objectReference: {fileID: 0}
    - target: {fileID: 4062287230431944, guid: b522bebd20426ea4ea6a25fc1647ee11, type: 3}
      propertyPath: m_RootOrder
      value: 0
      objectReference: {fileID: 0}
    - target: {fileID: 4062287230431944, guid: b522bebd20426ea4ea6a25fc1647ee11, type: 3}
      propertyPath: m_LocalEulerAnglesHint.x
      value: 0
      objectReference: {fileID: 0}
    - target: {fileID: 4062287230431944, guid: b522bebd20426ea4ea6a25fc1647ee11, type: 3}
      propertyPath: m_LocalEulerAnglesHint.y
      value: 0
      objectReference: {fileID: 0}
    - target: {fileID: 4062287230431944, guid: b522bebd20426ea4ea6a25fc1647ee11, type: 3}
      propertyPath: m_LocalEulerAnglesHint.z
      value: 0
      objectReference: {fileID: 0}
    - target: {fileID: 198385661222217894, guid: b522bebd20426ea4ea6a25fc1647ee11,
        type: 3}
      propertyPath: InitialModule.startSize.scalar
      value: 1
      objectReference: {fileID: 0}
    m_RemovedComponents: []
  m_SourcePrefab: {fileID: 100100000, guid: b522bebd20426ea4ea6a25fc1647ee11, type: 3}
--- !u!4 &6869202802305953896 stripped
Transform:
  m_CorrespondingSourceObject: {fileID: 4062287230431944, guid: b522bebd20426ea4ea6a25fc1647ee11,
    type: 3}
  m_PrefabInstance: {fileID: 6870840659382108832}
  m_PrefabAsset: {fileID: 0}
