%YAML 1.1
%TAG !u! tag:unity3d.com,2011:
--- !u!181963792 &2655988077585873504
Preset:
  m_ObjectHideFlags: 0
  m_CorrespondingSourceObject: {fileID: 0}
  m_PrefabInstance: {fileID: 0}
  m_PrefabAsset: {fileID: 0}
  m_Name: BubbleShoot_3
  m_TargetType:
    m_NativeTypeID: 114
    m_ManagedTypePPtr: {fileID: 11500000, guid: 07e984a483ad60344bfe18baaf8644cd,
      type: 3}
    m_ManagedTypeFallback: 
  m_Properties:
  - target: {fileID: 0}
    propertyPath: m_Enabled
    value: 1
    objectReference: {fileID: 0}
  - target: {fileID: 0}
    propertyPath: m_EditorHideFlags
    value: 0
    objectReference: {fileID: 0}
  - target: {fileID: 0}
    propertyPath: m_EditorClassIdentifier
    value: 
    objectReference: {fileID: 0}
  - target: {fileID: 0}
    propertyPath: go_pool
    value: 
    objectReference: {fileID: 0}
  - target: {fileID: 0}
    propertyPath: pool
    value: 
    objectReference: {fileID: 0}
  - target: {fileID: 0}
    propertyPath: data
    value: 
    objectReference: {fileID: 0}
  - target: {fileID: 0}
    propertyPath: emitterHolder
    value: 
    objectReference: {fileID: 0}
  - target: {fileID: 0}
    propertyPath: rotationSpeed
    value: 1
    objectReference: {fileID: 0}
  - target: {fileID: 0}
    propertyPath: rotationAngleX
    value: 0
    objectReference: {fileID: 0}
  - target: {fileID: 0}
    propertyPath: rotationAngleY
    value: 0
    objectReference: {fileID: 0}
  - target: {fileID: 0}
    propertyPath: rotationAngleZ
    value: 1
    objectReference: {fileID: 0}
  - target: {fileID: 0}
    propertyPath: bubbles.Array.size
    value: 0
    objectReference: {fileID: 0}
  - target: {fileID: 0}
    propertyPath: bubblesIndex
    value: 0
    objectReference: {fileID: 0}
  - target: {fileID: 0}
    propertyPath: firstShootingCountDown
    value: 0
    objectReference: {fileID: 0}
  - target: {fileID: 0}
    propertyPath: resetShootingTime
    value: 0.3
    objectReference: {fileID: 0}
  - target: {fileID: 0}
    propertyPath: totalWaveShootingTime
    value: 0
    objectReference: {fileID: 0}
  - target: {fileID: 0}
    propertyPath: rechargeTime
    value: 0
    objectReference: {fileID: 0}
  - target: {fileID: 0}
    propertyPath: bubbleEmitter.Array.size
    value: 1
    objectReference: {fileID: 0}
  - target: {fileID: 0}
    propertyPath: bubbleEmitter.Array.data[0]
    value: 
    objectReference: {fileID: 0}
  - target: {fileID: 0}
    propertyPath: shootingTimeCountDown
    value: 0
    objectReference: {fileID: 0}
  - target: {fileID: 0}
    propertyPath: totalWaveShootingTimeCountDown
    value: 0
    objectReference: {fileID: 0}
  - target: {fileID: 0}
    propertyPath: rechargeTimeCountDown
    value: 0
    objectReference: {fileID: 0}
