%YAML 1.1
%TAG !u! tag:unity3d.com,2011:
--- !u!21 &2100000
Material:
  serializedVersion: 6
  m_ObjectHideFlags: 0
  m_CorrespondingSourceObject: {fileID: 0}
  m_PrefabInstance: {fileID: 0}
  m_PrefabAsset: {fileID: 0}
  m_Name: M_SwordBlade_05_b
  m_Shader: {fileID: 4800000, guid: 3decfc019ad8a184692ab3a5ff1e14c6, type: 3}
  m_ShaderKeywords: _KEEPEDGE_NONFLOWMAP_ON
  m_LightmapFlags: 0
  m_EnableInstancingVariants: 1
  m_DoubleSidedGI: 0
  m_CustomRenderQueue: -1
  stringTagMap: {}
  disabledShaderPasses: []
  m_SavedProperties:
    serializedVersion: 3
    m_TexEnvs:
    - _BumpMap:
        m_Texture: {fileID: 0}
        m_Scale: {x: 1, y: 1}
        m_Offset: {x: 0, y: 0}
    - _DetailAlbedoMap:
        m_Texture: {fileID: 0}
        m_Scale: {x: 1, y: 1}
        m_Offset: {x: 0, y: 0}
    - _DetailMask:
        m_Texture: {fileID: 0}
        m_Scale: {x: 1, y: 1}
        m_Offset: {x: 0, y: 0}
    - _DetailNormalMap:
        m_Texture: {fileID: 0}
        m_Scale: {x: 1, y: 1}
        m_Offset: {x: 0, y: 0}
    - _EmissionMap:
        m_Texture: {fileID: 0}
        m_Scale: {x: 1, y: 1}
        m_Offset: {x: 0, y: 0}
    - _FlowMap:
        m_Texture: {fileID: 2800000, guid: 96d828acabca0bf48bea08f94d95d543, type: 3}
        m_Scale: {x: 1, y: 5}
        m_Offset: {x: 0, y: 0}
    - _MainTex:
        m_Texture: {fileID: 2800000, guid: a66fffaa0f2f9174b90fccb5ca676d2b, type: 3}
        m_Scale: {x: 1, y: 1}
        m_Offset: {x: 0, y: 0}
    - _MetallicGlossMap:
        m_Texture: {fileID: 0}
        m_Scale: {x: 1, y: 1}
        m_Offset: {x: 0, y: 0}
    - _OcclusionMap:
        m_Texture: {fileID: 0}
        m_Scale: {x: 1, y: 1}
        m_Offset: {x: 0, y: 0}
    - _ParallaxMap:
        m_Texture: {fileID: 0}
        m_Scale: {x: 1, y: 1}
        m_Offset: {x: 0, y: 0}
    - _node_3522:
        m_Texture: {fileID: 2800000, guid: 37843a95265c15844999479d9a718d6b, type: 3}
        m_Scale: {x: 1, y: 1}
        m_Offset: {x: 0, y: 0}
    - _node_4922:
        m_Texture: {fileID: 2800000, guid: 47344b1818dad3c4c90b7e3ce21a5d3a, type: 3}
        m_Scale: {x: 1, y: 1}
        m_Offset: {x: 0, y: 0}
    m_Floats:
    - _AlphaStrength: 4
    - _BlackAmount: 2.5
    - _BladeStretch: 1
    - _BumpScale: 1
    - _Cutoff: 0.5
    - _DetailNormalMapScale: 1
    - _DstBlend: 0
    - _EmissFadeout: 1
    - _EmissStrength: 1.2
    - _FlowSpeed: 1
    - _FlowStrength: 0.125
    - _GlossMapScale: 1
    - _Glossiness: 0.5
    - _GlossyReflections: 1
    - _KeepEdge_NonFlowmap: 1
    - _Metallic: 0
    - _Mode: 0
    - _OcclusionStrength: 1
    - _Parallax: 0.02
    - _RefractionStrength: 0.5
    - _SharpEdge: 0.7
    - _SmoothnessTextureChannel: 0
    - _SpecularHighlights: 1
    - _SrcBlend: 1
    - _UVSec: 0
    - _U_StretchStrength: 10
    - _ZWrite: 1
    - _node_5097: 1
    - _node_690: 0
    - _node_9399: 0
    m_Colors:
    - _Color: {r: 1, g: 0.8938679, b: 0.7028302, a: 1}
    - _EmissionColor: {r: 0, g: 0, b: 0, a: 1}
    - _node_8180: {r: 0, g: 0, b: 0, a: 0}
