%YAML 1.1
%TAG !u! tag:unity3d.com,2011:
--- !u!1 &3997387763413049844
GameObject:
  m_ObjectHideFlags: 0
  m_CorrespondingSourceObject: {fileID: 0}
  m_PrefabInstance: {fileID: 0}
  m_PrefabAsset: {fileID: 0}
  serializedVersion: 6
  m_Component:
  - component: {fileID: 2017819216836153649}
  - component: {fileID: 7043851988366300720}
  m_Layer: 0
  m_Name: Bullet_1 1
  m_TagString: Untagged
  m_Icon: {fileID: 0}
  m_NavMeshLayer: 0
  m_StaticEditorFlags: 0
  m_IsActive: 1
--- !u!4 &2017819216836153649
Transform:
  m_ObjectHideFlags: 0
  m_CorrespondingSourceObject: {fileID: 0}
  m_PrefabInstance: {fileID: 0}
  m_PrefabAsset: {fileID: 0}
  m_GameObject: {fileID: 3997387763413049844}
  m_LocalRotation: {x: 0.7071068, y: 0, z: 0, w: 0.7071068}
  m_LocalPosition: {x: 8.152774, y: -0.1925149, z: 5.5399094}
  m_LocalScale: {x: 1, y: 1, z: 1}
  m_Children:
  - {fileID: 6199982345031483781}
  m_Father: {fileID: 0}
  m_RootOrder: 0
  m_LocalEulerAnglesHint: {x: 90, y: 0, z: 0}
--- !u!114 &7043851988366300720
MonoBehaviour:
  m_ObjectHideFlags: 0
  m_CorrespondingSourceObject: {fileID: 0}
  m_PrefabInstance: {fileID: 0}
  m_PrefabAsset: {fileID: 0}
  m_GameObject: {fileID: 3997387763413049844}
  m_Enabled: 1
  m_EditorHideFlags: 0
  m_Script: {fileID: 11500000, guid: 23fcfc17119bb6b4f8348cc5c6fdfcc3, type: 3}
  m_Name: 
  m_EditorClassIdentifier: 
  bulletLife: 3
  bulletSpeed: 10
--- !u!1001 &914211701484097863
PrefabInstance:
  m_ObjectHideFlags: 0
  serializedVersion: 2
  m_Modification:
    m_TransformParent: {fileID: 2017819216836153649}
    m_Modifications:
    - target: {fileID: 4573482746774446233, guid: 2421f84f25bb32e47ae2beebafb92a9f,
        type: 3}
      propertyPath: m_Name
      value: Quad
      objectReference: {fileID: 0}
    - target: {fileID: 6531677046718632130, guid: 2421f84f25bb32e47ae2beebafb92a9f,
        type: 3}
      propertyPath: m_LocalPosition.x
      value: 0
      objectReference: {fileID: 0}
    - target: {fileID: 6531677046718632130, guid: 2421f84f25bb32e47ae2beebafb92a9f,
        type: 3}
      propertyPath: m_LocalPosition.y
      value: 0
      objectReference: {fileID: 0}
    - target: {fileID: 6531677046718632130, guid: 2421f84f25bb32e47ae2beebafb92a9f,
        type: 3}
      propertyPath: m_LocalPosition.z
      value: 0
      objectReference: {fileID: 0}
    - target: {fileID: 6531677046718632130, guid: 2421f84f25bb32e47ae2beebafb92a9f,
        type: 3}
      propertyPath: m_LocalRotation.x
      value: 0
      objectReference: {fileID: 0}
    - target: {fileID: 6531677046718632130, guid: 2421f84f25bb32e47ae2beebafb92a9f,
        type: 3}
      propertyPath: m_LocalRotation.y
      value: 0
      objectReference: {fileID: 0}
    - target: {fileID: 6531677046718632130, guid: 2421f84f25bb32e47ae2beebafb92a9f,
        type: 3}
      propertyPath: m_LocalRotation.z
      value: 0
      objectReference: {fileID: 0}
    - target: {fileID: 6531677046718632130, guid: 2421f84f25bb32e47ae2beebafb92a9f,
        type: 3}
      propertyPath: m_LocalRotation.w
      value: 1
      objectReference: {fileID: 0}
    - target: {fileID: 6531677046718632130, guid: 2421f84f25bb32e47ae2beebafb92a9f,
        type: 3}
      propertyPath: m_RootOrder
      value: 0
      objectReference: {fileID: 0}
    - target: {fileID: 6531677046718632130, guid: 2421f84f25bb32e47ae2beebafb92a9f,
        type: 3}
      propertyPath: m_LocalEulerAnglesHint.x
      value: 0
      objectReference: {fileID: 0}
    - target: {fileID: 6531677046718632130, guid: 2421f84f25bb32e47ae2beebafb92a9f,
        type: 3}
      propertyPath: m_LocalEulerAnglesHint.y
      value: 0
      objectReference: {fileID: 0}
    - target: {fileID: 6531677046718632130, guid: 2421f84f25bb32e47ae2beebafb92a9f,
        type: 3}
      propertyPath: m_LocalEulerAnglesHint.z
      value: 0
      objectReference: {fileID: 0}
    - target: {fileID: 6531677046718632130, guid: 2421f84f25bb32e47ae2beebafb92a9f,
        type: 3}
      propertyPath: m_LocalScale.y
      value: 1
      objectReference: {fileID: 0}
    - target: {fileID: 6531677046718632130, guid: 2421f84f25bb32e47ae2beebafb92a9f,
        type: 3}
      propertyPath: m_LocalScale.z
      value: 1
      objectReference: {fileID: 0}
    - target: {fileID: 6531677046718632130, guid: 2421f84f25bb32e47ae2beebafb92a9f,
        type: 3}
      propertyPath: m_LocalScale.x
      value: 1
      objectReference: {fileID: 0}
    m_RemovedComponents:
    - {fileID: 5410406582082447335, guid: 2421f84f25bb32e47ae2beebafb92a9f, type: 3}
  m_SourcePrefab: {fileID: 100100000, guid: 2421f84f25bb32e47ae2beebafb92a9f, type: 3}
--- !u!4 &6199982345031483781 stripped
Transform:
  m_CorrespondingSourceObject: {fileID: 6531677046718632130, guid: 2421f84f25bb32e47ae2beebafb92a9f,
    type: 3}
  m_PrefabInstance: {fileID: 914211701484097863}
  m_PrefabAsset: {fileID: 0}
