%YAML 1.1
%TAG !u! tag:unity3d.com,2011:
--- !u!1 &7612534960028426141
GameObject:
  m_ObjectHideFlags: 0
  m_CorrespondingSourceObject: {fileID: 0}
  m_PrefabInstance: {fileID: 0}
  m_PrefabAsset: {fileID: 0}
  serializedVersion: 6
  m_Component:
  - component: {fileID: 7612534960028426142}
  - component: {fileID: 5512353412782406024}
  m_Layer: 0
  m_Name: SameSpeedBubblePool
  m_TagString: SameSpeedBubblePool
  m_Icon: {fileID: 0}
  m_NavMeshLayer: 0
  m_StaticEditorFlags: 0
  m_IsActive: 1
--- !u!4 &7612534960028426142
Transform:
  m_ObjectHideFlags: 0
  m_CorrespondingSourceObject: {fileID: 0}
  m_PrefabInstance: {fileID: 0}
  m_PrefabAsset: {fileID: 0}
  m_GameObject: {fileID: 7612534960028426141}
  m_LocalRotation: {x: -0, y: 0.7071068, z: -0, w: 0.7071068}
  m_LocalPosition: {x: -3.0400019, y: 3.8295808, z: -0.16877365}
  m_LocalScale: {x: 1, y: 2.5187497, z: 2.5187554}
  m_Children: []
  m_Father: {fileID: 0}
  m_RootOrder: 0
  m_LocalEulerAnglesHint: {x: 0, y: 0, z: 0}
--- !u!114 &5512353412782406024
MonoBehaviour:
  m_ObjectHideFlags: 0
  m_CorrespondingSourceObject: {fileID: 0}
  m_PrefabInstance: {fileID: 0}
  m_PrefabAsset: {fileID: 0}
  m_GameObject: {fileID: 7612534960028426141}
  m_Enabled: 1
  m_EditorHideFlags: 0
  m_Script: {fileID: 11500000, guid: b360945002b706d408fcf6b3ca51ba50, type: 3}
  m_Name: 
  m_EditorClassIdentifier: 
  bubble:
  - {fileID: 7035262982532299017, guid: 30c741edad97be94d86df5f70f48ea11, type: 3}
  initailSize: 1000
