%YAML 1.1
%TAG !u! tag:unity3d.com,2011:
--- !u!1 &4179199111410125355
GameObject:
  m_ObjectHideFlags: 0
  m_CorrespondingSourceObject: {fileID: 0}
  m_PrefabInstance: {fileID: 0}
  m_PrefabAsset: {fileID: 0}
  serializedVersion: 6
  m_Component:
  - component: {fileID: 185636443036025545}
  m_Layer: 0
  m_Name: Bullet
  m_TagString: Untagged
  m_Icon: {fileID: 0}
  m_NavMeshLayer: 0
  m_StaticEditorFlags: 0
  m_IsActive: 1
--- !u!4 &185636443036025545
Transform:
  m_ObjectHideFlags: 0
  m_CorrespondingSourceObject: {fileID: 0}
  m_PrefabInstance: {fileID: 0}
  m_PrefabAsset: {fileID: 0}
  m_GameObject: {fileID: 4179199111410125355}
  m_LocalRotation: {x: 0, y: 0, z: 0, w: 1}
  m_LocalPosition: {x: -2.3216815, y: 1.5971346, z: 0.29061216}
  m_LocalScale: {x: 1, y: 1, z: 1}
  m_Children:
  - {fileID: 8318585793339909211}
  m_Father: {fileID: 0}
  m_RootOrder: 0
  m_LocalEulerAnglesHint: {x: 0, y: 0, z: 0}
--- !u!1001 &1941396004876854212
PrefabInstance:
  m_ObjectHideFlags: 0
  serializedVersion: 2
  m_Modification:
    m_TransformParent: {fileID: 185636443036025545}
    m_Modifications:
    - target: {fileID: 7602275001859753876, guid: 5b84d732c1707a8428c64c148b20082e,
        type: 3}
      propertyPath: m_Name
      value: FollowMachineBullet
      objectReference: {fileID: 0}
    - target: {fileID: 7602275001859753887, guid: 5b84d732c1707a8428c64c148b20082e,
        type: 3}
      propertyPath: m_LocalPosition.x
      value: 0
      objectReference: {fileID: 0}
    - target: {fileID: 7602275001859753887, guid: 5b84d732c1707a8428c64c148b20082e,
        type: 3}
      propertyPath: m_LocalPosition.y
      value: 0
      objectReference: {fileID: 0}
    - target: {fileID: 7602275001859753887, guid: 5b84d732c1707a8428c64c148b20082e,
        type: 3}
      propertyPath: m_LocalPosition.z
      value: 0
      objectReference: {fileID: 0}
    - target: {fileID: 7602275001859753887, guid: 5b84d732c1707a8428c64c148b20082e,
        type: 3}
      propertyPath: m_LocalRotation.x
      value: 0.7071068
      objectReference: {fileID: 0}
    - target: {fileID: 7602275001859753887, guid: 5b84d732c1707a8428c64c148b20082e,
        type: 3}
      propertyPath: m_LocalRotation.y
      value: 0
      objectReference: {fileID: 0}
    - target: {fileID: 7602275001859753887, guid: 5b84d732c1707a8428c64c148b20082e,
        type: 3}
      propertyPath: m_LocalRotation.z
      value: 0
      objectReference: {fileID: 0}
    - target: {fileID: 7602275001859753887, guid: 5b84d732c1707a8428c64c148b20082e,
        type: 3}
      propertyPath: m_LocalRotation.w
      value: 0.7071068
      objectReference: {fileID: 0}
    - target: {fileID: 7602275001859753887, guid: 5b84d732c1707a8428c64c148b20082e,
        type: 3}
      propertyPath: m_RootOrder
      value: 0
      objectReference: {fileID: 0}
    - target: {fileID: 7602275001859753887, guid: 5b84d732c1707a8428c64c148b20082e,
        type: 3}
      propertyPath: m_LocalEulerAnglesHint.x
      value: 90
      objectReference: {fileID: 0}
    - target: {fileID: 7602275001859753887, guid: 5b84d732c1707a8428c64c148b20082e,
        type: 3}
      propertyPath: m_LocalEulerAnglesHint.y
      value: 0
      objectReference: {fileID: 0}
    - target: {fileID: 7602275001859753887, guid: 5b84d732c1707a8428c64c148b20082e,
        type: 3}
      propertyPath: m_LocalEulerAnglesHint.z
      value: 0
      objectReference: {fileID: 0}
    - target: {fileID: 7602275001859753887, guid: 5b84d732c1707a8428c64c148b20082e,
        type: 3}
      propertyPath: m_LocalScale.y
      value: 0.1
      objectReference: {fileID: 0}
    - target: {fileID: 7602275001859753887, guid: 5b84d732c1707a8428c64c148b20082e,
        type: 3}
      propertyPath: m_LocalScale.z
      value: 0.1
      objectReference: {fileID: 0}
    - target: {fileID: 7602275001859753887, guid: 5b84d732c1707a8428c64c148b20082e,
        type: 3}
      propertyPath: m_LocalScale.x
      value: 0.1
      objectReference: {fileID: 0}
    m_RemovedComponents: []
  m_SourcePrefab: {fileID: 100100000, guid: 5b84d732c1707a8428c64c148b20082e, type: 3}
--- !u!4 &8318585793339909211 stripped
Transform:
  m_CorrespondingSourceObject: {fileID: 7602275001859753887, guid: 5b84d732c1707a8428c64c148b20082e,
    type: 3}
  m_PrefabInstance: {fileID: 1941396004876854212}
  m_PrefabAsset: {fileID: 0}
